<svg
  xmlns="http://www.w3.org/2000/svg"
  viewBox="0 0 24 24"
  fill="none"
  id="Layer_1"
  stroke="#eeeeee"
  stroke-width="2"
  stroke-linecap="round"
  stroke-linejoin="round"
>
  <line x1="2" y1="2" x2="22" y2="22" />
  <path d="M8.5 16.5a5 5 0 017 0" />
  <path d="M2 8.82a15 15 0 014.17-2.65" />
  <path d="M10.66 5c4.01-.36 8.14.9 11.34 3.76" />
  <path d="M16.85 11.25a10 10 0 012.22 1.68" />
  <path d="M5 13a10 10 0 015.24-2.76" />
  <line x1="12" y1="20" x2="12.01" y2="20" />
</svg>
